

 NAS Parallel Benchmarks 3.4 -- FT Benchmark

 No input file inputft.data. Using compiled defaults
 Size                : 2048x1024x1024  (class D)
 Iterations          :             25
 Number of processes :            128
 Processor array     :         1x 128
 Layout type         :             1D

 Initialization time =      9.5333

[PI-INFO] Init time,108,19.059478
[PI-INFO] Init time,110,19.060089
[PI-INFO] Init time,106,19.066093
[PI-INFO] Init time,109,19.063638
[PI-INFO] Init time,104,19.071310
[PI-INFO] Init time,112,19.060030
[PI-INFO] Init time,119,19.057897
[PI-INFO] Init time,105,19.079994
[PI-INFO] Init time,115,19.066587
[PI-INFO] Init time,107,19.080550
[PI-INFO] Init time,103,19.087689
[PI-INFO] Init time,116,19.067202
[PI-INFO] Init time,102,19.090572
[PI-INFO] Init time,121,19.061252
[PI-INFO] Init time,113,19.074504
[PI-INFO] Init time,117,19.069394
[PI-INFO] Init time,100,19.097223
[PI-INFO] Init time,124,19.061938
[PI-INFO] Init time,120,19.069590
[PI-INFO] Init time,14,19.121259
[PI-INFO] Init time,125,19.062935
[PI-INFO] Init time,101,19.100926
[PI-INFO] Init time,111,19.085811
[PI-INFO] Init time,99,19.105036
[PI-INFO] Init time,123,19.067991
[PI-INFO] Init time,126,19.063594
[PI-INFO] Init time,15,19.121901
[PI-INFO] Init time,16,19.121114
[PI-INFO] Init time,97,19.111624
[PI-INFO] Init time,27,19.108111
[PI-INFO] Init time,114,19.089137
[PI-INFO] Init time,118,19.083469
[PI-INFO] Init time,24,19.114095
[PI-INFO] Init time,25,19.113528
[PI-INFO] Init time,9,19.141334
[PI-INFO] Init time,11,19.139555
[PI-INFO] Init time,12,19.138369
[PI-INFO] Init time,127,19.073700
[PI-INFO] Init time,22,19.122632
[PI-INFO] Init time,23,19.121474
[PI-INFO] Init time,8,19.145672
[PI-INFO] Init time,122,19.082433
[PI-INFO] Init time,17,19.132347
[PI-INFO] Init time,6,19.151931
[PI-INFO] Init time,13,19.140830
[PI-INFO] Init time,1,19.160593
[PI-INFO] Init time,3,19.157608
[PI-INFO] Init time,5,19.156843
[PI-INFO] Init time,0,19.164571
[PI-INFO] Init time,2,19.162315
[PI-INFO] Init time,28,19.118865
[PI-INFO] Init time,18,19.136722
[PI-INFO] Init time,10,19.152668
[PI-INFO] Init time,19,19.137908
[PI-INFO] Init time,30,19.123996
[PI-INFO] Init time,4,19.166652
[PI-INFO] Init time,26,19.131018
[PI-INFO] Init time,31,19.123297
[PI-INFO] Init time,7,19.164159
[PI-INFO] Init time,80,19.116768
[PI-INFO] Init time,76,19.125701
[PI-INFO] Init time,81,19.116987
[PI-INFO] Init time,77,19.126681
[PI-INFO] Init time,79,19.124542
[PI-INFO] Init time,98,19.140709
[PI-INFO] Init time,75,19.132565
[PI-INFO] Init time,29,19.135981
[PI-INFO] Init time,96,19.150082
[PI-INFO] Init time,74,19.140851
[PI-INFO] Init time,85,19.120849
[PI-INFO] Init time,78,19.136566
[PI-INFO] Init time,86,19.121624
[PI-INFO] Init time,88,19.120621
[PI-INFO] Init time,73,19.151485
[PI-INFO] Init time,89,19.124678
[PI-INFO] Init time,66,19.165211
[PI-INFO] Init time,68,19.162277
[PI-INFO] Init time,83,19.136139
[PI-INFO] Init time,90,19.124577
[PI-INFO] Init time,71,19.158500
[PI-INFO] Init time,21,19.169538
[PI-INFO] Init time,65,19.171326
[PI-INFO] Init time,67,19.168501
[PI-INFO] Init time,92,19.125497
[PI-INFO] Init time,69,19.165834
[PI-INFO] Init time,64,19.173998
[PI-INFO] Init time,94,19.124186
[PI-INFO] Init time,72,19.163936
[PI-INFO] Init time,93,19.128162
[PI-INFO] Init time,84,19.143944
[PI-INFO] Init time,20,19.180604
[PI-INFO] Init time,70,19.177195
[PI-INFO] Init time,87,19.149444
[PI-INFO] Init time,82,19.160028
[PI-INFO] Init time,41,19.176499
[PI-INFO] Init time,95,19.144966
[PI-INFO] Init time,91,19.156727
[PI-INFO] Init time,47,19.187049
[PI-INFO] Init time,45,19.210899
[PI-INFO] Init time,44,19.216724
[PI-INFO] Init time,52,19.205363
[PI-INFO] Init time,42,19.225790
[PI-INFO] Init time,39,19.236215
[PI-INFO] Init time,57,19.204904
[PI-INFO] Init time,46,19.229857
[PI-INFO] Init time,48,19.226633
[PI-INFO] Init time,59,19.210456
[PI-INFO] Init time,36,19.251626
[PI-INFO] Init time,37,19.250342
[PI-INFO] Init time,58,19.215143
[PI-INFO] Init time,53,19.224224
[PI-INFO] Init time,40,19.252242
[PI-INFO] Init time,33,19.263850
[PI-INFO] Init time,55,19.226671
[PI-INFO] Init time,51,19.238556
[PI-INFO] Init time,54,19.234726
[PI-INFO] Init time,43,19.262891
[PI-INFO] Init time,49,19.264537
[PI-INFO] Init time,34,19.296632
[PI-INFO] Init time,35,19.296416
[PI-INFO] Init time,32,19.303819
[PI-INFO] Init time,56,19.266279
[PI-INFO] Init time,38,19.300159
[PI-INFO] Init time,50,19.292195
[PI-INFO] Init time,60,19.275023
[PI-INFO] Init time,61,19.283521
[PI-INFO] Init time,62,19.294321
[PI-INFO] Init time,63,19.292356
3 total processes killed (some possibly by mpirun during cleanup)
